{
    "id": "cari_deep_pirates",
    "name": "Deep Pirates",
    "author": "Caricature",
    "utility": "true",
    "version": "0.1.0",
    "description": "This mod aims to add some depth to piracy, both interactions with the Pirates faction and as practiced by the player.",
    "gameVersion": "0.7.1a",
	"jars":["jars/DeepPirates.jar"],
    "modPlugin": "org.caricature.deeppirates.DeepPirates"
}
